ASE_esercizi/Mux&demux_ghdl/Mux2_1/mux2_1.vcd
$date
  Fri Oct 13 18:55:18 2017
$end
$version
  GHDL v0
$end
$timescale
  1 fs
$end
$var reg 1 ! sel $end
$var reg 1 " a $end
$var reg 1 # b $end
$var reg 1 $ x $end
$scope module uut $end
$var reg 1 % sel $end
$var reg 1 & a $end
$var reg 1 ' b $end
$var reg 1 ( x $end
$upscope $end
$enddefinitions $end
#0
0!
0"
0#
0$
0%
0&
0'
0(
#10000000
1"
1&
#20000000
1!
1$
1%
1(
#30000000
0"
0$
0&
0(
#40000000
1#
1'
#50000000
Z!
X$
Z%
X(
#60000000
1"
1&
#70000000
0"
0&
